Date,TimeOfDay,Type,SubType,Distance,DistanceUnit,Duration
2009-04-01,,Run,Easy,6.09,Mile,0:48:00
2009-04-02,,Run,Easy,3.81,Mile,0:32:00
2009-04-03,,Run,Easy,8.08,Mile,1:02:00
2009-04-06,,Run,Easy,8.1,Mile,1:02:00
2009-04-07,,Run,Easy,8.4,Mile,1:07:00
2009-04-08,,Run,Easy,5.51,Mile,0:42:00
2009-04-09,,Run,Easy,6.4,Mile,0:54:00
2009-04-10,,Run,Trails,10.12,Mile,1:25:00
2009-04-12,,Run,Easy,2.5,Mile,0:25:00
2009-04-13,,Run,Easy,7.32,Mile,0:55:00
2009-04-14,,Run,Easy,5.4,Mile,0:43:00
2009-04-15,,Run,Easy,6.19,Mile,0:46:30
2009-04-16,,Run,Easy,4.41,Mile,0:35:03
2009-04-17,,Run,Easy,6.94,Mile,0:57:00
2009-04-19,,Run,Easy,3.31,Mile,0:25:00
2009-04-20,,Run,Easy,5.1,Mile,0:40:00
2009-04-20,,Run,Easy,3.31,Mile,0:24:00
2009-04-21,,Run,Easy,6.8,Mile,0:52:00
2009-04-22,,Run,Easy,4.89,Mile,0:38:00
2009-04-23,,Run,Easy,5.4,Mile,0:00:00
2009-04-25,,Run,Easy,3.2,Mile,0:27:00
2009-04-28,,Run,Easy,5.4,Mile,0:43:00
2009-04-29,,Run,Easy,4.1,Mile,0:29:00
2009-04-30,,Run,Easy,2,Mile,0:16:00
2009-05-01,,Run,Easy,7,Mile,0:52:00
2009-05-02,,Run,Easy,4.1,Mile,0:36:00
2009-05-03,,Run,Easy,4.4,Mile,0:37:00
2009-05-04,,Run,Easy,4.4,Mile,0:38:00
2009-05-04,,Run,Easy,4,Mile,0:31:00
2009-05-05,16:34:00,Run,Easy,10.11,Mile,21:17.7
2009-05-06,16:22:00,Run,Easy,7.17,Mile,55:01.6
2009-05-07,5:55:00,Run,Easy,3.38,Mile,29:18.4
2009-05-08,,Run,Easy,5.18,Mile,0:43:00
2009-05-09,,Run,Easy,3.12,Mile,0:26:00
2009-05-10,,Run,Easy,3.11,Mile,0:25:00
2009-05-11,,Run,Easy,6.1,Mile,0:50:00
2009-05-12,,Run,Easy,8.01,Mile,1:02:00
2009-05-13,16:00:00,Run,Easy,6.61,Mile,17:53.8
2009-05-13,16:00:00,Run,Snow!,3.52,Mile,0:23:00
2009-05-14,17:19:00,Run,Easy,3.03,Mile,25:58.9
2009-05-15,16:10:00,Run,Easy,7.29,Mile,57:47.4
2009-05-16,8:54:00,Run,Easy,6.07,Mile,47:37.2
2009-05-18,15:59:00,Run,Long,11.84,Mile,32:09.9
2009-05-19,16:38:00,Run,Easy,6.34,Mile,48:18.0
2009-05-20,16:01:00,Run,Tempo,8.03,Mile,58:28.9
2009-05-21,16:26:00,Run,Easy,4.18,Mile,34:56.4
2009-05-23,7:37:00,Run,Easy,3.03,Mile,23:09.3
2009-05-23,8:31:00,Run,Race,5,Kilometer,0:18:24
2009-05-23,9:21:00,Run,Easy,1,Mile,08:39.9
2009-05-24,9:13:00,Run,Easy,4.52,Mile,39:33.5
2009-05-25,15:43:00,Run,Easy,10.23,Mile,15:27.5
2009-05-26,19:28:00,Run,Easy,4.25,Mile,34:45.0
2009-05-27,,Run,Easy,3.4,Mile,0:31:00
2009-05-27,6:08:00,Run,Easy,3,Mile,24:48.0
2009-05-28,7:32:00,Run,Easy,7.29,Mile,58:13.3
2009-05-30,7:51:00,Run,Easy,1.93,Mile,15:28.0
2009-05-30,8:30:00,Run,Race,5,Kilometer,0:18:18
2009-05-30,9:00:00,Run,Easy,1.18,Mile,10:15.4
2009-05-31,12:39:00,Run,Easy,4.07,Mile,33:21.7
2009-06-01,10:31:00,Run,Easy,7.35,Mile,00:16.4
2009-06-01,17:16:00,Run,Easy,3.05,Mile,26:17.9
2009-06-02,7:47:00,Run,Easy,3.94,Mile,34:10.1
2009-06-02,8:39:00,Run,Easy,4.23,Mile,30:44.6
2009-06-03,7:54:00,Run,Easy,0.32,Mile,02:52.6
2009-06-03,8:11:00,Run,Easy,5.29,Mile,44:49.5
2009-06-03,9:39:00,Run,Easy,2.06,Mile,18:08.6
2009-06-03,18:14:00,Run,Easy,3.06,Mile,24:15.6
2009-06-04,13:01:00,Run,Easy,3.45,Mile,27:59.4
2009-06-06,8:38:00,Run,Easy,3.9,Mile,33:21.1
2009-06-08,8:54:00,Run,Easy,8.25,Mile,04:46.0
2009-06-09,7:11:00,Run,Easy,5.24,Mile,43:23.5
2009-06-09,8:05:00,Run,Easy,5.14,Mile,41:05.6
2009-06-10,7:31:00,Run,Easy,7.05,Mile,59:46.5
2009-06-11,7:39:00,Run,Easy,5.02,Mile,43:21.1
2009-06-12,7:19:00,Run,Easy,4.54,Mile,35:58.9
2009-06-13,9:51:00,Run,Easy,4.32,Mile,33:45.9
2009-06-15,5:33:00,Run,Easy,5.17,Mile,42:32.6
2009-06-19,15:52:00,Run,Easy,4.85,Mile,40:10.6
2009-06-21,9:44:00,Run,Easy,3.16,Mile,26:25.4
2009-06-21,18:11:00,Run,Easy,3.73,Mile,29:47.2
2009-06-29,7:08:00,Run,Easy,4.53,Mile,38:16.8
2009-06-29,17:25:00,Run,Easy,4.37,Mile,38:48.9
2009-06-30,7:58:00,Run,Easy,6.61,Mile,54:43.3
2009-07-01,6:13:00,Run,Easy,7.45,Mile,06:35.3
2009-07-02,8:29:00,Run,Easy,4.42,Mile,35:16.9
2009-07-05,9:38:00,Run,Easy,3.48,Mile,27:56.7
2009-07-06,6:51:00,Run,Easy,10.03,Mile,22:52.7
2009-07-07,8:06:00,Run,Easy,6.44,Mile,50:10.3
2009-07-08,7:32:00,Run,Easy,4.5,Mile,36:16.4
2009-07-09,7:31:00,Run,Easy,7.06,Mile,55:35.3
2009-07-10,,Run,Easy,5.2,Mile,0:41:20
2009-07-12,,Run,Easy,3.12,Mile,0:26:12
2009-07-12,18:41:00,Run,Easy,4.53,Mile,36:11.6
2009-07-13,6:33:00,Run,Easy,4.04,Mile,33:05.9
2009-07-14,7:03:00,Run,Easy,4.02,Mile,32:11.4
2009-07-15,18:12:00,Run,Easy,5.07,Mile,38:02.8
2009-07-16,6:30:00,Run,Easy,7.05,Mile,59:56.9
2009-07-17,15:05:00,Run,Easy,3.58,Mile,29:33.3
2009-07-18,10:31:00,Run,Easy,5.11,Mile,39:58.7
2009-07-20,8:12:00,Run,Easy,7.02,Mile,59:32.0
2009-07-21,6:47:00,Run,Easy,6.61,Mile,57:01.4
2009-07-23,6:02:00,Run,Easy,5.6,Mile,45:58.0
2009-07-24,6:06:00,Run,Easy,5.5,Mile,48:11.0
2009-07-25,6:07:00,Run,Easy,4.28,Mile,37:04.4
2009-07-27,8:07:00,Run,Easy,5.69,Mile,43:34.3
2009-07-27,15:51:00,Run,Easy,3.12,Mile,23:40.5
2009-07-28,8:02:00,Run,Easy,2.18,Mile,17:57.9
2009-07-28,8:39:00,Run,Easy,4.34,Mile,33:54.5
2009-07-29,,Run,Easy,5,Mile,0:41:00
2009-07-30,7:00:00,Run,Easy,4.52,Mile,36:40.2
2009-07-30,17:44:00,Run,Easy,7.13,Mile,57:07.7
2009-08-04,17:37:00,Run,Easy,4.06,Mile,37:38.4
2009-08-08,10:33:00,Run,Easy,4.01,Mile,31:29.1
2009-08-09,12:35:00,Run,Easy,4.06,Mile,32:34.1
2009-08-10,6:01:00,Run,Tempo,5.75,Mile,43:29.1
2009-08-11,6:04:00,Run,Easy,4.61,Mile,40:20.8
2009-08-11,18:39:00,Run,Easy,3.73,Mile,33:07.4
2009-08-12,16:47:00,Run,Easy,3.33,Mile,27:18.0
2009-08-13,,Run,Easy,3.3,Mile,0:30:00
2009-08-13,18:40:00,Run,Easy,6.08,Mile,47:12.6
2009-08-14,19:30:00,Run,Easy,4.53,Mile,37:17.7
2009-08-15,14:29:00,Run,Recovery,6.33,Mile,47:54.7
2009-08-16,9:45:00,Run,Easy,4.06,Mile,34:26.5
2009-08-17,17:43:00,Run,Easy,4.33,Mile,0:34:41
2009-08-18,16:04:00,Run,Snow!,4.59,Mile,33:41.1
2009-08-19,,Run,Snow!,5.5,Mile,0:41:20
2009-08-20,16:04:00,Run,Snow!,4.1,Mile,33:14.3
2009-08-21,15:54:00,Run,Snow!,4.12,Mile,32:39.8
2009-08-22,6:53:00,Run,Easy,2.01,Mile,16:56.4
2009-08-22,8:09:00,Run,Easy,0.78,Mile,06:18.7
2009-08-22,8:35:00,Run,Race,5,Kilometer,18:25.0
2009-08-22,9:01:00,Run,Easy,0.66,Mile,05:56.8
2009-08-23,11:13:00,Run,Easy,4.22,Mile,34:14.0
2009-08-24,16:05:00,Run,Snow!,5.01,Mile,40:40.6
2009-08-25,16:21:00,Run,Snow!,5.09,Mile,38:22.1
2009-08-26,16:04:00,Run,Snow!,5.69,Mile,44:01.5
2009-08-27,,Run,Easy,5.5,Mile,0:45:00
2009-08-28,16:22:00,Run,Marathon Pace,5.4,Mile,39:16.3
2009-08-29,7:43:00,Run,Easy,1.3,Mile,09:25.4
2009-08-29,8:05:00,Run,Race,5,Kilometer,0:18:44
2009-08-30,9:37:00,Run,Long,10.41,Mile,25:59.7
2009-09-01,16:05:00,Run,Snow!,5.11,Mile,40:38.6
2009-09-03,15:55:00,Run,Snow!,7.26,Mile,56:17.6
2009-09-04,16:04:00,Run,Snow!,6.1,Mile,48:23.7
2009-09-05,8:10:00,Run,Long,6.52,Mile,55:28.3
2009-09-06,,Run,Easy,5.4,Mile,0:45:00
2009-09-07,17:32:00,Run,Easy,4.08,Mile,34:34.0
2009-09-08,15:56:00,Run,Snow!,6.12,Mile,47:06.1
2009-09-09,16:05:00,Run,Snow!,6.03,Mile,50:05.7
2009-09-10,15:57:00,Run,Snow!,3.33,Mile,29:54.8
2009-09-10,17:44:00,Run,Easy,6.34,Mile,50:40.2
2009-09-12,7:28:00,Run,Easy,4.47,Mile,35:34.6
2009-09-13,9:56:00,Run,Long,2.77,Mile,22:23.3
2009-09-13,10:22:00,Run,Easy,0.64,Mile,0:08:00
2009-09-13,10:35:00,Run,Long,0.58,Mile,04:32.3
2009-09-13,10:43:00,Run,Long,2.52,Mile,30:57.1
2009-09-13,11:27:00,Run,Easy,3.04,Mile,24:20.5
2009-09-14,16:03:00,Run,Snow!,5.13,Mile,40:08.1
2009-09-14,19:03:00,Run,Easy,2.58,Mile,25:04.3
2009-09-15,17:23:00,Run,Snow!,3.58,Mile,31:32.3
2009-09-17,16:04:00,Run,Long,10.15,Mile,1:22:27
2009-09-18,5:46:00,Run,Easy,4.01,Mile,34:34.2
2009-09-18,16:48:00,Run,Easy,4.24,Mile,32:40.4
2009-09-20,10:24:00,Run,Easy,5.26,Mile,40:11.2
2009-09-21,15:55:00,Run,Easy,7.05,Mile,54:07.6
2009-09-22,15:36:00,Run,Easy,1.99,Mile,17:38.7
2009-09-22,16:11:00,Run,Easy,1.25,Mile,07:59.4
2009-09-22,16:33:00,Run,Easy,0.97,Mile,05:52.4
2009-09-22,16:49:00,Run,Easy,1.03,Mile,06:29.1
2009-09-22,17:07:00,Run,Easy,0.99,Mile,06:47.5
2009-09-25,18:26:00,Run,Easy,5.12,Mile,58:14.0
2009-09-26,9:34:00,Run,Long,10.19,Mile,32:06.8
2009-09-27,9:40:00,Run,Easy,5.02,Mile,45:27.2
2009-09-27,18:16:00,Run,Easy,3.1,Mile,39:37.6
2009-09-28,16:02:00,Run,Easy,6.26,Mile,58:25.7
2009-09-29,16:03:00,Run,Easy,6.45,Mile,51:19.9
2009-09-30,17:11:00,Run,Easy,3.13,Mile,27:32.3
2009-09-30,19:05:00,Run,Easy,4.87,Mile,37:41.7
2009-10-01,16:10:00,Run,Easy,7.07,Mile,08:18.7
2009-10-02,15:59:00,Run,Easy,0.91,Mile,07:20.0
2009-10-02,16:20:00,Run,Easy,2.87,Mile,17:23.3
2009-10-02,17:01:00,Run,Easy,0.88,Mile,07:18.4
2009-10-03,11:00:00,Run,Easy,3.7,Mile,32:51.2
2009-10-04,11:43:00,Run,Easy,8.21,Mile,09:23.0
2009-10-06,17:47:00,Run,Easy,2.4,Mile,18:15.7
2009-10-06,18:49:00,Run,Easy,4.11,Mile,32:40.2
2009-10-07,16:07:00,Run,Easy,8.35,Mile,05:06.1
2009-10-07,17:25:00,Run,Easy,0.26,Mile,01:59.6
2009-10-08,16:13:00,Run,Easy,0.25,Mile,01:49.5
2009-10-08,16:24:00,Run,Easy,1.01,Mile,05:48.6
2009-10-08,16:36:00,Run,Easy,0.5,Mile,02:44.5
2009-10-08,16:39:00,Run,Easy,1.03,Mile,14:30.0
2009-10-08,17:05:00,Run,Easy,4.79,Mile,37:48.5
2009-10-09,16:11:00,Run,Easy,7.18,Mile,56:49.9
2009-10-11,,Run,Long,10.6,Mile,1:27:00
2009-10-13,16:14:00,Run,Easy,0.1,Mile,00:51.5
2009-10-13,16:25:00,Run,Easy,6.31,Mile,47:17.6
2009-10-14,5:47:00,Run,Easy,3.14,Mile,28:50.5
2009-10-23,2:49:00,Run,Long,10.03,Mile,23:23.0
2009-10-24,3:49:00,Run,Easy,4.2,Mile,36:15.2
2009-10-26,16:01:00,Run,Easy,3.55,Mile,29:38.8
2009-10-27,17:32:00,Run,Easy,5.06,Mile,0:38:29
2009-10-28,,Run,Snow!,6.3,Mile,0:54:00
2009-10-29,15:58:00,Run,Easy,7.13,Mile,52:25.5
2009-10-30,16:23:00,Run,Easy,6.31,Mile,49:53.8
2009-10-30,16:23:00,Run,Easy,6.31,Mile,49:53.8
2009-11-01,11:01:00,Run,Easy,5.94,Mile,49:26.7
2009-11-02,16:04:00,Run,Recovery,3.55,Mile,24:14.8
2009-11-02,16:45:00,Run,Easy,2.66,Mile,20:14.8
2009-11-03,15:53:00,Run,Recovery,0.96,Mile,08:14.3
2009-11-03,16:02:00,Run,Recovery,0.14,Mile,00:57.7
2009-11-03,16:07:00,Run,Recovery,1.94,Mile,11:53.3
2009-11-03,16:35:00,Run,Easy,2.31,Mile,21:34.4
2009-11-04,17:03:00,Run,Easy,4.59,Mile,36:15.8
2009-11-05,16:05:00,Run,Easy,3.85,Mile,48:49.6
2009-11-06,16:51:00,Run,Easy,6.29,Mile,46:27.5
2009-11-07,7:23:00,Run,Easy,7.05,Mile,57:02.3
2009-11-08,10:35:00,Run,Easy,6.34,Mile,48:29.5
2009-11-09,17:37:00,Run,Easy,8,Mile,05:04.9
2009-11-10,17:22:00,Run,Long,11.21,Mile,26:44.9
2009-11-11,17:15:00,Run,Easy,4.52,Mile,39:04.5
2009-11-12,,Run,Easy,3.3,Mile,0:29:00
2009-11-13,7:57:00,Run,Easy,3.8,Mile,32:07.5
2009-11-14,8:19:00,Run,Easy,3.26,Mile,27:53.0
2009-11-16,16:07:00,Run,Easy,0.16,Mile,03:13.4
2009-11-16,16:11:00,Run,Easy,4.12,Mile,34:45.0
2009-11-17,16:15:00,Run,Easy,6.57,Mile,50:13.7
2009-11-18,,Run,Easy,4.5,Mile,0:36:00
2009-11-19,16:08:00,Run,Easy,6.82,Mile,54:11.8
2009-11-20,16:34:00,Run,Easy,6.62,Mile,53:39.4
2009-11-21,15:35:00,Run,Easy,4.36,Mile,35:31.4
2009-11-22,10:38:00,Run,Easy,11.53,Mile,31:19.7
2009-11-23,16:42:00,Run,Recovery,6.5,Mile,50:19.0
2009-11-24,,Run,Easy,0.9,Mile,0:08:20
2009-11-24,16:33:00,Run,Easy,2.03,Mile,17:42.1
2009-11-24,19:27:00,Run,Race,5,Kilometer,0:18:04
2009-11-25,8:38:00,Run,Long,10.18,Mile,31:30.1
2009-11-26,7:51:00,Run,Easy,0.89,Mile,06:57.9
2009-11-26,8:17:00,Run,Race,10,Kilometer,39:20.9
2009-11-27,14:17:00,Run,Easy,5.26,Mile,46:36.7
2009-11-29,11:30:00,Run,Easy,6.6,Mile,54:27.0
2009-11-30,17:01:00,Run,Recovery,7.39,Mile,57:53.9
2009-12-01,17:31:00,Run,Easy,8.36,Mile,10:07.7
2009-12-03,16:59:00,Run,Easy,10.1,Mile,18:45.4
2009-12-04,16:16:00,Run,Easy,3.06,Mile,22:49.9
2009-12-05,8:20:00,Run,Easy,3.01,Mile,23:20.1
2009-12-06,12:35:00,Run,Bomb,7.5,Mile,53:10.4
2009-12-07,16:53:00,Run,Easy,6.28,Mile,50:22.4
2009-12-09,16:31:00,Run,Easy,10.1,Mile,22:05.3
2009-12-10,15:51:00,Run,Bomb,10.16,Mile,13:44.9
2009-12-11,15:46:00,Run,Easy,4.4,Mile,36:49.9
2009-12-12,9:15:00,Run,Easy,6.01,Mile,49:28.5
2009-12-13,10:40:00,Run,Easy,5,Mile,39:19.4
2009-12-14,16:06:00,Run,Easy,10.03,Mile,19:31.3
2009-12-15,17:03:00,Run,Easy,3.05,Mile,25:10.8
2009-12-15,17:40:00,Run,Easy,9.09,Mile,13:06.8
2009-12-16,15:46:00,Run,Easy,4.09,Mile,32:53.7
2009-12-17,16:47:00,Run,Easy,6.07,Mile,49:42.8
2009-12-19,11:22:00,Run,Easy,5.77,Mile,49:19.4
2009-12-20,14:55:00,Run,Marathon Pace,6.57,Mile,46:53.7
2009-12-21,16:23:00,Run,Easy,15.02,Mile,58:18.7
2009-12-22,8:24:00,Run,Easy,4,Mile,38:01.7
2009-12-23,10:59:00,Run,Easy,4.24,Mile,36:50.3
2009-12-26,11:55:00,Run,Easy,4.21,Mile,32:36.0
2009-12-27,12:09:00,Run,Easy,3.43,Mile,44:16.9
2009-12-28,17:05:00,Run,Easy,5.13,Mile,41:44.8
2009-12-29,10:41:00,Run,Easy,6.22,Mile,48:44.7
2009-12-29,13:13:00,Run,Easy,3.4,Mile,35:06.8
2009-12-30,9:58:00,Run,Bomb,8.01,Mile,59:20.0
2009-12-30,16:53:00,Run,Easy,2.37,Mile,20:44.7
2009-12-31,11:32:00,Run,Easy,7.47,Mile,01:04.6
2010-01-01,16:07:00,Run,Easy,3.32,Mile,27:38.9
2010-01-02,11:14:00,Run,Easy,5.07,Mile,49:17.4
2010-01-03,11:58:00,Run,Easy,11.2,Mile,28:59.4
2010-01-04,16:31:00,Run,Long,16,Mile,02:19.7
2010-01-05,16:59:00,Run,Easy,8.07,Mile,22:57.7
2010-01-06,17:02:00,Run,Easy,4.14,Mile,33:08.0
2010-01-07,16:53:00,Run,Easy,6.76,Mile,47:54.7
2010-01-08,16:53:00,Run,Easy,7.13,Mile,50:49.9
2010-01-09,15:42:00,Run,Easy,6.34,Mile,05:13.0
2010-01-10,10:37:00,Run,Easy,5.06,Mile,38:54.3
2010-01-11,16:02:00,Run,Recovery,6.73,Mile,45:54.7
2010-01-12,16:57:00,Run,Easy,10.26,Mile,22:20.7
2010-01-13,6:07:00,Run,Easy,3,Mile,29:57.4
2010-01-13,15:54:00,Run,Easy,6.06,Mile,47:30.6
2010-01-14,16:57:00,Run,Easy,5.44,Mile,44:04.4
2010-01-14,17:57:00,Run,Easy,4.11,Mile,55:27.7
2010-01-15,16:46:00,Run,Easy,5.1,Mile,39:53.5
2010-01-16,9:26:00,Run,Long,17.11,Mile,18:08.2
2010-01-17,15:08:00,Run,Easy,3.01,Mile,36:26.9
2010-01-18,10:06:00,Run,Easy,5.34,Mile,44:12.7
2010-01-19,16:32:00,Run,Easy,10.67,Mile,21:57.8
2010-01-20,16:42:00,Run,Easy,5.2,Mile,40:18.9
2010-01-21,,Run,Easy,4,Mile,0:36:00
2010-01-22,16:55:00,Run,Easy,7.04,Mile,56:45.8
2010-01-23,15:49:00,Run,Easy,3.57,Mile,43:34.6
2010-01-25,15:54:00,Run,Marathon Pace,10,Mile,10:03.6
2010-01-26,16:02:00,Run,Long,20,Mile,36:58.4
2010-01-27,16:57:00,Run,Easy,4.18,Mile,35:57.7
2010-01-28,18:12:00,Run,Easy,4.02,Mile,49:07.4
2010-01-29,16:37:00,Run,Easy,4.06,Mile,31:09.9
2010-01-30,7:59:00,Run,Race,10,Kilometer,0:38:40
2010-01-31,11:02:00,Run,Easy,5.12,Mile,39:16.8
2010-02-01,,Run,Long,15,Mile,1:59:10
2010-02-03,17:16:00,Run,Easy,1.77,Mile,14:56.1
2010-02-03,17:49:00,Run,Easy,3.43,Mile,43:32.5
2010-02-04,17:03:00,Run,Easy,6.3,Mile,55:15.1
2010-02-05,,Run,Easy,7.2,Mile,0:59:03
2010-02-06,15:22:00,Run,Easy,5.23,Mile,40:36.1
2010-02-07,11:56:00,Run,Bomb,6.2,Mile,44:31.3
2010-02-08,15:55:00,Run,Snow!,5.21,Mile,38:46.4
2010-02-08,16:51:00,Run,Easy,3.05,Mile,23:22.9
2010-02-09,16:01:00,Run,Easy,4.12,Mile,34:39.1
2010-02-10,18:15:00,Run,Easy,5.47,Mile,02:37.9
2010-02-12,9:28:00,Run,Easy,4.58,Mile,37:21.4
2010-02-14,,Run,Easy,16.3,Mile,2:21:00
2010-02-15,16:43:00,Run,Easy,8.45,Mile,12:08.5
2010-02-16,18:17:00,Run,Easy,4.16,Mile,35:35.6
2010-02-17,18:09:00,Run,Easy,3.48,Mile,43:56.9
2010-02-18,17:25:00,Run,Easy,6,Mile,48:02.7
2010-02-19,16:47:00,Run,Easy,7,Mile,53:55.0
2010-02-20,13:44:00,Run,Easy,5.1,Mile,00:43.5
2010-02-21,9:57:00,Run,Easy,3.27,Mile,26:52.3
2010-02-22,,Run,Easy,8.33,Mile,1:06:00
2010-02-23,16:07:00,Run,Easy,8.16,Mile,09:40.4
2010-02-24,18:07:00,Run,Easy,6.33,Mile,08:44.9
2010-02-25,17:01:00,Run,Easy,8,Mile,02:42.0
2010-02-26,17:19:00,Run,Easy,6.84,Mile,05:11.7
2010-02-27,13:42:00,Run,Easy,5.33,Mile,41:47.8
2010-02-28,12:20:00,Run,Easy,4.4,Mile,53:45.6
2010-03-01,16:51:00,Run,Tempo,10.03,Mile,12:15.2
2010-03-02,,Run,Easy,2.54,Mile,0:25:00
2010-03-02,16:40:00,Run,Easy,4.08,Mile,31:52.0
2010-03-03,16:07:00,Run,Easy,11.08,Mile,26:22.7
2010-03-04,,Run,Easy,3.23,Mile,0:30:00
2010-03-05,,Run,Easy,8.85,Mile,1:05:15
2010-03-06,,Run,Easy,5,Mile,0:38:00
2010-03-07,,Run,Easy,4.58,Mile,0:34:50
2010-03-08,17:32:00,Run,Trails,8.02,Mile,03:33.3
2010-03-09,17:23:00,Run,Easy,1.14,Mile,08:40.8
2010-03-09,17:42:00,Run,Easy,9.75,Mile,17:23.8
2010-03-10,16:33:00,Run,Easy,4.72,Mile,38:34.1
2010-03-10,18:04:00,Run,Easy,3.87,Mile,46:04.4
2010-03-11,16:34:00,Run,Easy,7.23,Mile,58:28.7
2010-03-12,16:14:00,Run,Recovery,4.21,Mile,36:11.5
2010-03-13,,Run,Easy,3,Mile,0:28:45
2010-03-13,8:31:00,Run,Race,5,Kilometer,0:17:59
2010-03-13,9:56:00,Run,Easy,9.23,Mile,13:28.2
2010-03-15,5:20:00,Run,Easy,5.09,Mile,44:45.0
2010-03-15,16:53:00,Run,Trails,8.19,Mile,10:41.1
2010-03-16,16:48:00,Run,Long,15.1,Mile,59:08.1
2010-03-17,6:17:00,Run,Recovery,4.16,Mile,40:47.1
2010-03-18,16:32:00,Run,Easy,8.1,Mile,05:15.7
2010-03-19,5:27:00,Run,Easy,4.13,Mile,38:25.0
2010-03-19,16:46:00,Run,Easy,3.11,Mile,23:45.9
2010-03-20,16:00:00,Run,Easy,6.03,Mile,48:10.1
2010-03-21,10:24:00,Run,Easy,6.29,Mile,49:39.2
2010-03-22,5:29:00,Run,Easy,4.23,Mile,36:20.0
2010-03-22,15:44:00,Run,Marathon Pace,5.13,Mile,36:11.8
2010-03-23,16:41:00,Run,Long,18.32,Mile,17:24.7
2010-03-24,11:39:00,Run,Easy,4.58,Mile,37:32.7
2010-03-25,17:58:00,Run,Easy,5.46,Mile,49:59.2
2010-03-26,5:10:00,Run,Easy,5.6,Mile,0:46:00
2010-03-26,15:09:00,Run,Easy,7.61,Mile,01:03.7
2010-03-27,12:30:00,Run,Easy,6.13,Mile,48:54.3
2010-03-28,13:59:00,Run,Easy,6.48,Mile,52:07.2
2010-03-29,16:25:00,Run,Long,20.11,Mile,27:15.9
2010-03-30,16:38:00,Run,Easy,5.35,Mile,41:46.9
2010-03-31,16:23:00,Run,Easy,7.57,Mile,58:04.8
2010-04-01,16:44:00,Run,Easy,6.29,Mile,48:29.2
2010-04-02,9:30:00,Run,Easy,9.21,Mile,12:43.9
2010-04-04,8:40:00,Run,Easy,6.04,Mile,49:11.7
2010-04-05,8:56:00,Run,Trails,10.32,Mile,24:21.4
2010-04-06,9:02:00,Run,Easy,10.19,Mile,20:14.9
2010-04-06,19:00:00,Run,Recovery,3.1,Mile,0:32:21
2010-04-07,8:54:00,Run,Recovery,5.18,Mile,42:42.9
2010-04-08,11:28:00,Run,Marathon Pace,7.12,Mile,51:13.7
2010-04-09,,Run,Recovery,4.21,Mile,0:35:54
2010-04-10,10:33:00,Run,Easy,10.11,Mile,16:55.6
2010-04-12,16:37:00,Run,Easy,10.11,Mile,16:20.8
2010-04-13,5:50:00,Run,Recovery,3.17,Mile,29:28.6
2010-04-13,17:26:00,Run,Easy,5.43,Mile,43:35.5
2010-04-14,17:19:00,Run,Easy,5.3,Mile,40:18.3
2010-04-15,16:53:00,Run,Recovery,3.54,Mile,29:57.9
2010-04-16,5:42:00,Run,Recovery,3.17,Mile,29:32.3
2010-04-19,10:01:00,Run,Race,26.2,Mile,3:08:10
2010-04-26,16:37:00,Run,Easy,5.39,Mile,41:44.6
2010-04-27,16:25:00,Run,Easy,5.03,Mile,41:42.3
2010-04-28,16:26:00,Run,Easy,5.04,Mile,42:15.4
2010-04-29,16:21:00,Run,Easy,5.04,Mile,42:33.6
2010-04-30,15:42:00,Run,Easy,5.36,Mile,44:45.6
2010-05-02,11:26:00,Run,Easy,6.22,Mile,53:56.3
2010-05-03,5:29:00,Run,Easy,5.02,Mile,43:06.8
2010-05-04,5:28:00,Run,Bomb,5.32,Mile,42:23.2
2010-05-05,16:45:00,Run,Default,5.35,Mile,43:31.4
2010-05-07,17:00:00,Run,Easy,5.36,Mile,43:32.6
2010-05-09,,Run,Easy,3.4,Mile,0:28:00
2010-05-09,9:25:00,Run,Recovery,3.02,Mile,36:44.3
2010-05-10,4:45:00,Run,Easy,5.4,Mile,0:45:00
2010-05-11,,Run,Easy,5.02,Mile,0:43:00
2010-05-12,17:15:00,Run,Easy,4.4,Mile,36:56.5
2010-05-13,16:24:00,Run,Easy,5.01,Mile,42:19.3
2010-05-14,16:26:00,Run,Easy,4.42,Mile,37:29.2
2010-05-16,15:46:00,Run,Easy,5.61,Mile,47:54.4
2010-05-17,16:28:00,Run,Easy,5.78,Mile,48:34.4
2010-05-18,16:47:00,Run,Easy,5.03,Mile,41:36.2
2010-05-19,16:19:00,Run,Easy,6.26,Mile,49:42.1
2010-05-20,16:46:00,Run,Easy,4.64,Mile,37:50.2
2010-05-21,17:18:00,Run,Easy,4.45,Mile,36:08.0
2010-05-23,,Run,Easy,5.3,Mile,0:43:00
2010-05-24,,Run,Easy,4.81,Mile,0:40:00
2010-05-25,,Run,Easy,7.2,Mile,0:59:00
2010-05-26,,Run,Easy,6.3,Mile,0:53:00
2010-05-27,,Run,Easy,6.2,Mile,0:50:00
2010-05-28,,Run,Easy,6.3,Mile,0:54:00
2010-05-29,,Run,Easy,5.1,Mile,0:43:00
2010-05-30,,Run,Easy,5.6,Mile,0:45:00
2010-06-01,,Run,Easy,8.6,Kilometer,0:00:00
2010-06-03,,Run,Easy,7.32,Kilometer,0:36:00
2010-06-05,,Run,Easy,7.8,Kilometer,0:38:00
2010-06-08,17:10:00,Run,Easy,2.37,Mile,19:06.3
2010-06-08,17:45:00,Run,Easy,4.09,Mile,44:41.9
2010-06-09,15:21:00,Run,Easy,7.32,Mile,01:58.4
2010-06-10,8:58:00,Run,Easy,7.38,Mile,00:21.1
2010-06-11,,Run,Easy,3.2,Mile,0:28:00
2010-06-12,,Run,Easy,4.7,Mile,0:36:00
2010-06-13,20:30:00,Run,Easy,5.19,Mile,42:32.8
2010-06-14,,Run,Trails,4.8,Mile,0:37:43
2010-06-15,6:06:00,Run,Easy,7.38,Mile,00:23.9
2010-06-16,17:13:00,Run,Easy,3.77,Mile,30:03.5
2010-06-16,18:00:00,Run,Recovery,3.32,Mile,39:05.4
2010-06-17,,Run,Easy,4.2,Mile,0:34:00
2010-06-18,15:46:00,Run,Tempo,4.24,Mile,30:17.8
2010-06-20,10:50:00,Run,Easy,4.07,Mile,30:25.8
2010-06-21,6:04:00,Run,Easy,8.02,Mile,02:02.7
2010-06-21,17:02:00,Run,Easy,3.39,Mile,26:10.8
2010-06-22,5:54:00,Run,Easy,8.06,Mile,04:51.6
2010-06-24,17:33:00,Run,Easy,5.5,Mile,43:42.4
2010-06-25,5:57:00,Run,Easy,6.69,Mile,56:15.4
2010-06-25,16:24:00,Run,Easy,3.01,Mile,24:50.1
2010-06-26,19:06:00,Run,Easy,5.4,Mile,39:23.2
2010-06-27,10:22:00,Run,Easy,4.51,Mile,36:28.4
2010-06-28,7:05:00,Run,Easy,8.03,Mile,05:45.2
2010-06-29,6:17:00,Run,Easy,8.62,Mile,07:54.4
2010-06-30,8:56:00,Run,Easy,4.02,Mile,30:54.4
2010-06-30,17:47:00,Run,Easy,3.17,Mile,25:15.6
2010-07-01,7:57:00,Run,Easy,4.26,Mile,32:56.7
2010-07-01,16:12:00,Run,Easy,3.27,Mile,24:06.3
2010-07-02,7:09:00,Run,Easy,4.09,Mile,30:05.7
2010-07-02,17:00:00,Run,Default,3.4,Mile,0:30:00
2010-07-03,8:00:00,Run,Default,3.43,Mile,0:28:21
2010-07-04,,Run,Trails,4.2,Mile,0:51:00
2010-07-09,9:47:00,Run,Easy,8,Mile,03:49.1
2010-07-10,9:49:00,Run,Easy,7.46,Mile,0:59:41
2010-07-11,12:09:00,Run,Easy,7,Mile,56:14.5
2010-07-12,11:26:00,Run,Intervals,6.2,Mile,46:02.3
2010-07-13,8:33:00,Run,Recovery,5.24,Mile,44:31.1
2010-07-13,17:52:00,Run,Easy,5.27,Mile,42:18.7
2010-07-14,8:44:00,Run,Easy,6.3,Mile,50:42.1
2010-07-15,14:16:00,Run,Easy,7.04,Mile,56:10.6
2010-07-15,18:49:00,Run,Easy,3.18,Mile,25:23.1
2010-07-16,7:54:00,Run,Easy,6.2,Mile,49:32.9
2010-07-18,6:46:00,Run,Easy,6.07,Mile,47:47.4
2010-07-19,15:04:00,Run,Intervals,7.5,Mile,57:23.9
2010-07-19,18:43:00,Run,Easy,3.02,Mile,24:49.9
2010-07-20,,Run,Easy,6.8,Mile,1:01:00
2010-07-21,,Run,Easy,5.7,Mile,0:46:00
2010-07-22,,Run,Easy,6,Mile,0:50:00
2010-07-23,8:40:00,Run,Recovery,7.53,Mile,02:54.0
2010-07-25,,Run,Easy,7.4,Mile,1:03:30
2010-07-26,8:34:00,Run,Intervals,7.37,Mile,59:14.0
2010-07-27,8:28:00,Run,Easy,9.23,Mile,13:43.7
2010-07-28,,Run,Tempo,4.8,Mile,0:34:00
2010-07-29,6:15:00,Run,Easy,4.87,Mile,40:32.4
2010-07-31,,Run,Easy,4.5,Mile,0:38:00
2010-08-01,,Run,Easy,5.6,Mile,0:00:00
2010-08-02,6:46:00,Run,Easy,5.06,Mile,51:31.9
2010-08-03,8:14:00,Run,Recovery,3.23,Mile,26:58.7
2010-08-03,17:38:00,Run,Easy,5.91,Mile,51:34.1
2010-08-04,6:41:00,Run,Easy,6.13,Mile,52:42.0
2010-08-05,15:38:00,Run,Easy,6.05,Mile,0:49:58
2010-08-06,13:45:00,Run,Easy,6.38,Mile,51:01.3
2010-08-07,12:02:00,Run,Easy,10.26,Mile,25:09.4
2010-08-08,,Run,Easy,5.03,Mile,0:40:01
2010-08-09,,Run,Easy,7.93,Mile,1:07:10
2010-08-10,,Run,Easy,7.53,Mile,1:01:13
2010-08-11,,Run,Easy,5.09,Mile,0:41:16
2010-08-12,,Run,Bomb,5.22,Mile,0:41:06
2010-08-13,,Run,Easy,6.29,Mile,0:49:30
2010-08-14,,Run,Bomb,4.14,Mile,0:30:09
2010-08-15,16:14:00,Run,Easy,5.75,Mile,44:45.1
2010-08-16,6:03:00,Run,Easy,2.96,Mile,29:07.3
2010-08-16,17:04:00,Run,Easy,5.06,Mile,42:02.6
2010-08-17,17:49:00,Run,Default,8.36,Mile,08:48.5
2010-08-18,16:45:00,Run,Easy,5.18,Mile,40:52.8
2010-08-19,16:27:00,Run,Bomb,5.28,Mile,39:27.2
2010-08-20,16:25:00,Run,Easy,5.15,Mile,40:52.3
2010-08-21,18:10:00,Run,Easy,6.5,Mile,52:28.7
2010-08-22,12:15:00,Run,Easy,7.33,Mile,57:33.7
2010-08-23,16:31:00,Run,Easy,9.66,Mile,15:02.3
2010-08-24,,Run,Recovery,4.56,Mile,0:42:00
2010-08-25,16:36:00,Run,Easy,2.73,Mile,21:49.5
2010-08-25,16:59:00,Run,Default,2.44,Mile,18:45.1
2010-08-25,17:18:00,Run,Easy,3.38,Mile,26:10.2
2010-08-26,16:43:00,Run,Easy,3,Mile,23:53.5
2010-08-26,17:09:00,Run,Easy,1.94,Mile,16:06.8
2010-08-26,17:22:00,Run,Easy,0.84,Mile,06:23.9
2010-08-26,17:31:00,Run,Easy,1.91,Mile,14:57.8
2010-08-26,17:46:00,Run,Easy,2.56,Mile,20:04.2
2010-08-27,,Run,Easy,0.55,Mile,0:04:30
2010-08-27,15:18:00,Run,Easy,1.02,Mile,07:58.8
2010-08-27,15:44:00,Run,Tempo,5.21,Mile,35:39.6
2010-08-29,17:38:00,Run,Easy,8.15,Mile,01:48.3
2010-08-30,16:16:00,Run,Easy,8.02,Mile,02:20.6
2010-08-31,,Run,Easy,10.53,Mile,1:25:32
2010-09-01,16:42:00,Run,Easy,7.01,Mile,55:57.6
2010-09-03,,Run,Easy,5.02,Mile,0:43:00
2010-09-04,13:09:00,Run,Easy,5.41,Mile,55:19.0
2010-09-05,18:42:00,Run,Easy,5.36,Mile,43:40.1
2010-09-06,16:46:00,Run,Easy,5.13,Mile,42:21.2
2010-09-07,5:56:00,Run,Easy,3.04,Mile,27:18.0
2010-09-07,15:42:00,Run,Easy,2.93,Mile,22:48.6
2010-09-07,16:05:00,Run,Easy,2.9,Mile,22:17.6
2010-09-07,16:28:00,Run,Easy,0.39,Mile,02:50.1
2010-09-08,15:35:00,Run,Default,3.12,Mile,18:52.5
2010-09-08,16:01:00,Run,Easy,3.01,Mile,22:06.1
2010-09-09,16:37:00,Run,Easy,10.07,Mile,19:34.4
2010-09-10,16:34:00,Run,Easy,5.39,Mile,43:34.5
2010-09-12,11:51:00,Run,Easy,8.26,Mile,05:30.6
2010-09-13,14:02:00,Run,Easy,8.4,Mile,05:35.9
2010-09-14,16:20:00,Run,Easy,5.38,Mile,41:58.9
2010-09-15,15:52:00,Run,Easy,10.37,Mile,20:54.6
2010-09-16,16:05:00,Run,Easy,7.23,Mile,58:37.4
2010-09-17,15:52:00,Run,Easy,5.72,Mile,46:02.5
2010-09-18,7:49:00,Run,Easy,0.87,Mile,06:19.0
2010-09-18,8:01:00,Run,Race,5,Kilometer,18:02.5
2010-09-18,8:20:00,Run,Easy,0.65,Mile,05:26.0
2010-09-18,10:11:00,Run,Easy,2.19,Mile,18:12.1
2010-09-19,16:43:00,Run,Easy,5.31,Mile,44:18.4
2010-09-20,16:09:00,Run,Easy,12.1,Mile,34:36.5
2010-09-21,15:38:00,Run,Easy,6.23,Mile,48:20.2
2010-09-22,15:48:00,Run,Easy,8.11,Mile,02:36.9
2010-09-23,,Run,Easy,4.26,Mile,0:00:00
2010-09-23,15:35:00,Run,Intervals,4,Mile,00:34.4
2010-09-24,16:44:00,Run,Easy,5.05,Mile,41:02.3
2010-09-25,12:08:00,Run,Easy,7.29,Mile,56:47.7
2010-09-26,11:56:00,Run,Recovery,5.11,Mile,41:59.0
2010-09-27,14:03:00,Run,Marathon Pace,5.04,Mile,35:26.2
2010-09-27,18:04:00,Run,Marathon Pace,5.1,Mile,35:55.3
2010-09-28,16:22:00,Run,Easy,10.62,Mile,23:38.5
2010-09-29,15:43:00,Run,Easy,10.11,Mile,17:41.7
2010-09-30,16:07:00,Run,Intervals,7.18,Mile,51:37.5
2010-10-01,,Run,Easy,3.05,Mile,0:23:00
2010-10-02,12:10:00,Run,Tempo,4.6,Mile,28:38.2
2010-10-03,11:16:00,Run,Easy,5.55,Mile,42:30.5
2010-10-04,16:31:00,Run,Easy,12.12,Mile,33:31.2
2010-10-05,13:59:00,Run,Easy,5.6,Mile,42:26.6
2010-10-05,18:13:00,Run,Easy,2.65,Mile,33:49.0
2010-10-06,15:56:00,Run,Easy,7.1,Mile,56:29.2
2010-10-07,15:08:00,Run,Easy,10.15,Mile,17:36.2
2010-10-08,15:53:00,Run,Intervals,6.52,Mile,46:16.3
2010-10-09,9:15:00,Run,Easy,4.1,Mile,33:00.6
2010-10-10,18:04:00,Run,Easy,5.47,Mile,41:56.0
2010-10-11,16:07:00,Run,Easy,10.11,Mile,17:56.7
2010-10-12,17:33:00,Run,Easy,11.06,Mile,25:56.5
2010-10-13,15:54:00,Run,Tempo,6.2,Mile,42:43.3
2010-10-15,15:57:00,Run,Easy,4.61,Mile,35:36.2
2010-10-16,7:44:00,Run,Easy,0.56,Mile,04:29.7
2010-10-16,8:05:00,Run,Race,12,Kilometer,0:44:43
2010-10-16,9:15:00,Run,Easy,0.37,Mile,04:46.3
2010-10-17,10:14:00,Run,Recovery,5.75,Mile,46:29.7
2010-10-18,16:11:00,Run,Recovery,10.39,Mile,22:04.2
2010-10-19,16:08:00,Run,Easy,7.6,Mile,59:37.3
2010-10-20,15:44:00,Run,Easy,7.12,Mile,54:22.2
2010-10-21,15:58:00,Run,Easy,5.08,Mile,39:12.7
2010-10-22,15:27:00,Run,Easy,10.2,Mile,14:46.4
2010-10-23,17:17:00,Run,Easy,5.06,Mile,38:46.4
2010-10-24,11:54:00,Run,Easy,5.64,Mile,44:03.3
2010-10-25,15:35:00,Run,Easy,3,Mile,0:21:42
2010-10-26,,Run,Long,17.21,Mile,2:15:00
2010-10-27,16:48:00,Run,Easy,6,Mile,46:54.8
2010-10-28,13:31:00,Run,Easy,3.05,Mile,25:00.6
2010-10-29,16:08:00,Run,Easy,8.54,Mile,05:32.3
2010-10-31,11:59:00,Run,Easy,10.01,Mile,15:24.7
2010-11-01,11:56:00,Run,Easy,6.05,Mile,43:30.1
2010-11-02,8:52:00,Run,Easy,6.26,Mile,48:55.5
2010-11-03,15:55:00,Run,Tempo,10.11,Mile,11:41.8
2010-11-04,16:03:00,Run,Easy,6.54,Mile,49:53.5
2010-11-05,15:07:00,Run,Easy,11.32,Mile,25:43.8
2010-11-06,11:19:00,Run,Easy,7.18,Mile,02:23.2
2010-11-07,12:03:00,Run,Recovery,5.2,Mile,42:22.6
2010-11-08,16:00:00,Run,Easy,10.22,Mile,17:06.2
2010-11-09,15:54:00,Run,Easy,10.03,Mile,18:16.7
2010-11-10,16:11:00,Run,Easy,4.32,Mile,32:36.5
2010-11-11,16:16:00,Run,Tempo,4.09,Mile,28:50.1
2010-11-11,18:22:00,Run,Recovery,2.16,Mile,19:46.4
2010-11-12,16:12:00,Run,Easy,3.43,Mile,27:54.4
2010-11-13,7:12:00,Run,Easy,1.27,Mile,0:09:56
2010-11-13,7:30:00,Run,Race,13.1,Mile,1:22:01
2010-11-14,11:40:00,Run,Recovery,3.59,Mile,31:05.1
2010-11-15,15:46:00,Run,Recovery,10.23,Mile,24:14.8
2010-11-16,16:00:00,Run,Easy,5.19,Mile,42:20.6
2010-11-17,15:19:00,Run,Easy,9.19,Mile,11:33.1
2010-11-18,15:58:00,Run,Easy,5.2,Mile,43:32.0
2010-11-19,15:03:00,Run,Easy,9.26,Mile,11:51.0
2010-11-21,,Run,Easy,7.15,Mile,0:55:31
2010-11-22,15:55:00,Run,Easy,10.1,Mile,15:24.9
2010-11-23,,Run,Easy,10.08,Mile,1:18:34
2010-11-24,,Run,Easy,5.21,Mile,0:41:00
2010-11-25,,Run,Easy,3.2,Mile,0:28:00
2010-11-25,,Run,Race,8,Kilometer,0:29:20
2010-11-26,,Run,Easy,5.36,Mile,41:40.2
2010-11-27,,Run,Easy,7.28,Mile,56:17.3
2010-11-28,,Run,Easy,5.5,Mile,44:20.6
2010-11-29,,Run,Easy,9.06,Mile,1:04:45
2010-12-01,,Run,Easy,6.15,Mile,44:11.9
2010-12-03,,Run,Easy,5.3,Mile,0:41:02
2010-12-06,,Run,Easy,6.45,Mile,0:51:02
2010-12-07,,Run,Easy,6.54,Mile,0:50:45
2010-12-08,,Run,Easy,8.67,Mile,1:03:10
2010-12-09,,Run,Easy,8.75,Mile,1:06:40
2010-12-10,,Run,Easy,8.35,Mile,1:05:00
2010-12-11,,Run,Easy,4.5,Mile,0:37:10
2010-12-12,,Run,Easy,6.43,Mile,0:46:10
2010-12-13,,Run,Easy,8.17,Mile,0:57:18
2010-12-14,,Run,Easy,6.26,Mile,0:44:46
2010-12-15,,Run,Easy,4.47,Mile,0:32:08
2010-12-16,,Run,Easy,5.17,Mile,0:38:41
2010-12-17,,Run,Easy,6.5,Mile,0:46:10
2010-12-19,,Run,Easy,6.59,Mile,0:50:30
2010-12-20,,Run,Easy,5.33,Mile,0:41:12
2010-12-21,,Run,Easy,5.13,Mile,0:40:05
2010-12-22,,Run,Easy,3.14,Mile,0:24:06
2010-12-23,,Run,Easy,8.12,Mile,1:02:10
2010-12-24,,Run,Easy,6.2,Mile,0:49:42
2010-12-25,,Run,Easy,5.2,Mile,40:44.6
2010-12-27,,Run,Easy,6.69,Mile,0:51:47
2010-12-28,,Run,Easy,6.73,Mile,0:53:00
2010-12-29,,Run,Easy,7.75,Mile,57:45.9
2010-12-30,,Run,Easy,7.8,Mile,0:59:10
2010-12-31,,Run,Easy,8.01,Mile,1:05:00
2011-01-01,,Run,Easy,3.37,Mile,0:28:00
2011-01-02,,Run,Easy,8.01,Mile,1:04:00
2011-01-03,,Run,Easy,8.01,Mile,1:02:00
2011-01-04,,Run,Easy,4.74,Mile,0:38:10
2011-01-04,,Run,Easy,6.22,Mile,0:46:00
2011-01-05,,Run,Easy,4.4,Mile,0:38:00
2011-01-06,,Run,Tempo,6.29,Mile,0:43:15
2011-01-07,,Run,Easy,8.62,Mile,1:04:49
2011-01-08,15:31:00,Run,Easy,5.2,Mile,38:07.8
2011-01-09,16:28:00,Run,Snow!,5.16,Mile,39:57.7
2011-01-10,17:46:00,Run,Snow!,3.41,Mile,27:50.4
2011-01-11,,Run,Snow!,6.2,Mile,0:51:20
2011-01-12,10:03:00,Run,Snow!,5.82,Mile,46:31.2
2011-01-13,16:37:00,Run,Tempo,7.73,Mile,55:01.7
2011-01-14,16:35:00,Run,Easy,8.8,Mile,06:32.5
2011-01-15,16:47:00,Run,Easy,5.11,Mile,41:13.5
2011-01-16,13:05:00,Run,Easy,7.11,Mile,53:54.8
2011-01-17,12:30:00,Run,Easy,8.38,Mile,05:02.6
2011-01-18,16:43:00,Run,Tempo,8.04,Mile,57:07.7
2011-01-19,16:41:00,Run,Easy,5.42,Mile,41:32.6
2011-01-20,16:32:00,Run,Easy,6.61,Mile,51:16.5
2011-01-21,15:38:00,Run,Easy,6.44,Mile,50:13.8
2011-01-22,15:41:00,Run,Easy,10.25,Mile,17:36.9
2011-01-23,14:26:00,Run,Easy,5.04,Mile,37:41.7
2011-01-24,,Run,Easy,4.69,Mile,0:39:00
2011-01-25,,Run,Easy,4.3,Mile,0:36:00
2011-01-25,15:41:00,Run,Easy,7.43,Mile,57:32.5
2011-01-26,17:39:00,Run,Easy,6.08,Mile,46:43.4
2011-01-27,15:43:00,Run,Default,6.18,Mile,46:25.9
2011-01-28,16:14:00,Run,Easy,5.25,Mile,38:10.8
2011-01-29,14:26:00,Run,Easy,7.29,Mile,56:56.6
2011-01-30,14:50:00,Run,Easy,7.03,Mile,52:17.4
2011-01-31,6:22:00,Run,Easy,3.2,Mile,26:28.6
2011-01-31,15:45:00,Run,Easy,7.04,Mile,53:54.6
2011-02-01,16:52:00,Run,Default,7.4,Mile,54:06.2
2011-02-02,17:15:00,Run,Easy,6.05,Mile,45:28.4
2011-02-03,16:16:00,Run,Easy,6.51,Mile,48:37.9
2011-02-04,16:40:00,Run,Default,5.22,Mile,39:05.6
2011-02-05,8:53:00,Run,Easy,10.2,Mile,16:41.9
2011-02-06,,Run,Default,2.29,Mile,0:17:12
2011-02-06,13:01:00,Run,Tempo,4,Mile,0:24:59
2011-02-07,16:33:00,Run,Easy,6,Mile,45:57.1
2011-02-08,,Run,Easy,6.32,Mile,0:47:59
2011-02-09,16:15:00,Run,Easy,7.2,Mile,57:59.6
2011-02-10,16:22:00,Run,Easy,8.17,Mile,03:07.3
2011-02-11,15:43:00,Run,Easy,11.81,Mile,28:32.6
2011-02-12,17:19:00,Run,Easy,5.48,Mile,41:03.1
2011-02-13,15:06:00,Run,Easy,6.01,Mile,42:09.1
2011-02-14,17:10:00,Run,Easy,7.1,Mile,53:11.1
2011-02-15,16:34:00,Run,Easy,7.12,Mile,53:39.3
2011-02-16,16:09:00,Run,Easy,7.62,Mile,56:57.2
2011-02-17,17:10:00,Run,Easy,5.53,Mile,41:09.8
2011-02-18,16:49:00,Run,Easy,5.05,Mile,37:40.8
2011-02-19,18:30:00,Run,Tempo,6.13,Mile,42:06.0
2011-02-20,18:32:00,Run,Easy,4.57,Mile,35:25.7
2011-02-21,16:27:00,Run,Easy,7.23,Mile,52:54.9
2011-02-22,16:38:00,Run,Easy,5.16,Mile,38:36.6
2011-02-23,,Run,Easy,5,Mile,0:41:00
2011-02-25,15:53:00,Run,Easy,9.03,Mile,05:24.2
2011-02-28,,Run,Easy,8,Mile,1:05:00
2011-03-01,16:58:00,Run,Easy,6.06,Mile,47:03.7
2011-03-03,19:30:00,Run,Easy,5.17,Mile,40:31.9
2011-03-04,15:54:00,Run,Easy,12.01,Mile,29:06.1
2011-03-05,18:54:00,Run,Easy,6.03,Mile,46:15.6
2011-03-06,17:49:00,Run,Easy,5.55,Mile,42:19.2
2011-03-07,13:50:00,Run,Easy,7.21,Mile,51:36.0
2011-03-08,16:06:00,Run,Easy,8.5,Mile,04:11.4
2011-03-09,16:31:00,Run,Easy,8.69,Mile,06:38.6
2011-03-10,16:51:00,Run,Easy,5.02,Mile,39:03.6
2011-03-11,17:14:00,Run,Easy,5.07,Mile,33:49.8
2011-03-12,13:00:00,Run,Easy,8.42,Mile,07:36.8
2011-03-13,17:29:00,Run,Easy,5.46,Mile,46:27.5
2011-03-14,16:20:00,Run,Easy,9.06,Mile,11:11.8
2011-03-15,14:12:00,Run,Easy,8.06,Mile,03:04.4
2011-03-16,16:28:00,Run,Easy,10.87,Mile,22:30.1
2011-03-17,16:35:00,Run,Recovery,5.13,Mile,41:13.3
2011-03-18,16:18:00,Run,Easy,5.08,Mile,40:25.3
2011-03-19,8:00:00,Run,Easy,2.15,Mile,16:53.4
2011-03-19,8:32:00,Run,Race,5,Kilometer,0:17:47
2011-03-20,17:32:00,Run,Easy,7.58,Mile,58:34.8
2011-03-21,15:38:00,Run,Easy,8.5,Mile,10:45.6
2011-03-22,16:05:00,Run,Easy,3.19,Mile,26:29.3
2011-03-23,9:57:00,Run,Easy,8,Mile,04:21.0
2011-03-24,,Run,Easy,8.45,Mile,1:02:00
2011-03-25,17:16:00,Run,Easy,4.9,Mile,37:02.5
2011-03-26,10:52:00,Run,Easy,5.55,Mile,38:50.1
2011-03-27,,Run,Easy,8.56,Mile,1:06:00
2011-03-28,16:11:00,Run,Easy,10.07,Mile,14:33.5
2011-03-29,16:42:00,Run,Easy,4.03,Mile,30:34.4
2011-03-30,16:05:00,Run,Easy,6.14,Mile,46:34.2
2011-03-31,17:02:00,Run,Easy,6.03,Mile,46:22.9
2011-04-01,17:22:00,Run,Easy,5.29,Mile,39:08.4
2011-04-02,18:32:00,Run,Easy,6.12,Mile,45:50.7
2011-04-03,10:50:00,Run,Easy,11.15,Mile,22:55.7
2011-04-04,8:31:00,Run,Easy,8.24,Mile,05:42.3
2011-04-05,11:23:00,Run,Easy,8.58,Mile,09:53.9
2011-04-06,9:42:00,Run,Easy,8.75,Mile,09:02.0
2011-04-07,10:43:00,Run,Easy,5.21,Mile,0:42:00
2011-04-08,7:23:00,Run,Easy,4.38,Mile,37:35.2
2011-04-09,7:23:00,Run,Easy,4.51,Mile,33:14.0
2011-04-10,13:15:00,Run,Easy,7.87,Mile,59:15.0
2011-04-11,16:16:00,Run,Easy,7.16,Mile,55:07.7
2011-04-12,16:02:00,Run,Easy,8.67,Mile,1:08:00
2011-04-13,,Run,Easy,8.6,Mile,1:06:10
2011-04-14,16:41:00,Run,Easy,6.69,Mile,0:53:16
2011-04-15,16:22:00,Run,Intervals,8.66,Mile,01:48.8
2011-04-16,14:49:00,Run,Recovery,4.04,Mile,34:27.1
2011-04-17,14:07:00,Run,Easy,8.01,Mile,03:27.5
2011-04-18,10:58:00,Run,Easy,5.03,Mile,38:46.8
2011-04-18,12:45:00,Run,Easy,4.35,Mile,35:12.0
2011-04-19,16:24:00,Run,Tempo,7.02,Mile,49:30.6
2011-04-20,15:55:00,Run,Easy,8.37,Mile,07:55.5
2011-04-21,16:16:00,Run,Intervals,8.45,Mile,00:46.0
2011-04-23,,Run,Intervals,5.42,Mile,0:43:00
2011-04-24,,Run,Easy,7.2,Mile,0:58:00
2011-04-25,,Run,Easy,8.42,Mile,1:03:00
2011-04-26,,Run,Easy,5.78,Mile,0:47:00
2011-04-27,,Run,Easy,8.34,Mile,1:04:10
2011-04-28,,Run,Easy,8.6,Mile,1:07:00
2011-04-29,,Run,Easy,9.78,Mile,1:15:00
2011-04-30,,Run,Easy,4.15,Mile,0:33:00
2011-05-01,,Run,Easy,10.3,Mile,1:20:00
2011-05-02,,Run,Easy,9.78,Mile,1:16:00
2011-05-03,,Run,Easy,8.6,Mile,1:06:00
2011-05-04,,Run,Easy,7.61,Mile,1:01:00
2011-05-05,15:45:00,Run,Easy,8.47,Mile,06:49.9
2011-05-06,16:22:00,Run,Easy,8.43,Mile,07:09.5
2011-05-08,14:17:00,Run,Easy,8.44,Mile,06:22.7
2011-05-09,14:34:00,Run,Easy,8.43,Mile,1:05:00
2011-05-10,9:06:00,Run,Easy,8.42,Mile,04:22.4
2011-05-11,15:21:00,Run,Easy,8.44,Mile,05:07.2
2011-05-12,16:19:00,Run,Easy,8.44,Mile,06:50.3
2011-05-13,,Run,Easy,8.4,Mile,1:07:00
2011-05-14,18:34:00,Run,Easy,4.51,Mile,35:05.3
2011-05-15,,Run,Easy,5.4,Mile,0:45:10
2011-05-15,,Run,Easy,5.4,Mile,0:45:10
2011-05-16,15:29:00,Run,Easy,8.4,Mile,1:07:00
2011-05-17,,Run,Easy,8.4,Mile,1:09:00
2011-05-18,16:20:00,Run,Easy,6.91,Mile,51:43.1
2011-05-19,10:43:00,Run,Easy,10.02,Mile,20:48.8
2011-05-20,16:15:00,Run,Easy,5.72,Mile,38:48.5
2011-05-21,10:55:00,Run,Easy,6.17,Mile,48:43.8
2011-05-22,13:40:00,Run,Easy,6.49,Mile,49:13.8
2011-05-23,,Run,Easy,9.2,Mile,1:11:00
2011-05-24,,Run,Easy,6.2,Mile,0:47:00
2011-05-25,,Run,Easy,9.3,Mile,1:18:00
2011-05-26,,Run,Bomb,9.3,Mile,1:16:00
2011-05-31,19:07:00,Run,Easy,12.38,Mile,36:45.5
2011-06-01,11:31:00,Run,Easy,6.74,Mile,57:13.5
2011-06-02,,Run,Recovery,4.43,Mile,0:37:00
2011-06-03,12:07:00,Run,Easy,5.33,Mile,44:41.3
2011-06-05,,Run,Easy,6.7,Mile,0:53:00
2011-06-06,,Run,Easy,8.4,Mile,1:03:00
2011-06-07,,Run,Easy,7,Mile,0:56:01
2011-06-08,,Run,Easy,8.4,Mile,1:05:00
2011-06-09,,Run,Easy,7.2,Mile,0:59:00
2011-06-10,,Run,Easy,7.2,Mile,0:59:00
2011-06-11,20:01:00,Run,Easy,5.08,Mile,40:53.9
2011-06-12,,Run,Easy,7.58,Mile,0:00:00
2011-06-13,,Run,Easy,5.4,Mile,0:45:00
2011-06-14,18:27:00,Run,Easy,5.01,Mile,41:13.5
2011-06-15,,Run,Easy,8.6,Mile,1:09:00
2011-06-16,17:13:00,Run,Easy,10.07,Mile,20:44.5
2011-06-18,7:45:00,Run,Easy,6,Mile,49:23.9
2011-06-19,,Run,Easy,8.6,Mile,1:13:00
2011-06-20,16:52:00,Run,Easy,5.52,Mile,42:43.4
2011-06-21,16:52:00,Run,Easy,7.11,Mile,55:52.1
2011-06-22,,Run,Easy,8.4,Mile,1:11:00
2011-06-23,,Run,Easy,6.2,Mile,0:50:00
2011-06-24,,Run,Easy,8.6,Mile,1:09:00
2011-06-25,,Run,Easy,8.6,Mile,1:15:00
2011-06-26,,Run,Easy,5.1,Mile,0:44:00
2011-06-27,,Run,Easy,6.5,Mile,0:48:30
2011-06-28,,Run,Easy,7.4,Mile,0:57:00
2011-06-29,,Run,Easy,5.8,Mile,0:45:00
2011-06-30,,Run,Easy,7.2,Mile,0:56:00
2011-07-01,,Run,Easy,5.2,Mile,0:41:00
2011-07-02,,Run,Easy,8.6,Mile,1:06:00
2011-07-03,,Run,Easy,10.3,Mile,1:21:00
2011-07-04,,Run,Easy,6.1,Mile,0:48:00
2011-07-05,16:52:00,Run,Easy,4.02,Mile,31:02.7
2011-07-05,17:28:00,Run,Easy,5.74,Mile,46:31.3
2011-07-06,16:48:00,Run,Intervals,6.39,Mile,44:21.7
2011-07-07,17:27:00,Run,Easy,5.78,Mile,46:31.2
2011-07-08,,Run,Easy,7.2,Mile,0:56:00
2011-07-10,17:40:00,Run,Easy,5.48,Mile,45:49.8
2011-07-11,17:10:00,Run,Easy,6.18,Mile,50:34.9
2011-07-12,16:52:00,Run,Easy,6.75,Mile,57:52.2
2011-07-13,,Run,Easy,7.2,Mile,0:56:00
2011-07-14,17:22:00,Run,Intervals,7.01,Mile,53:38.8
2011-07-15,17:38:00,Run,Easy,6.01,Mile,49:34.5
2011-07-17,17:25:00,Run,Long,11.02,Mile,29:25.8
2011-07-18,17:02:00,Run,Easy,8.58,Mile,07:21.5
2011-07-19,16:56:00,Run,Easy,5.23,Mile,40:48.9
2011-07-20,16:52:00,Run,Easy,6.03,Mile,44:45.3
2011-07-21,16:58:00,Run,Long,13.16,Mile,44:22.9
2011-07-23,12:17:00,Run,Easy,7.53,Mile,03:42.8
2011-07-24,9:41:00,Run,Easy,9.01,Mile,16:16.8
2011-07-25,18:11:00,Run,Easy,9,Mile,14:30.7
2011-07-26,18:59:00,Run,Easy,7,Mile,59:30.6
2011-07-27,17:05:00,Run,Easy,8.43,Mile,09:38.7
2011-07-28,17:48:00,Run,Easy,5.11,Mile,0:42:43
2011-07-29,17:40:00,Run,Easy,5.54,Mile,42:42.1
2011-07-30,14:41:00,Run,Long,6.2,Mile,46:12.2
2011-07-31,12:26:00,Run,Easy,6.1,Mile,50:17.7
2011-08-01,,Run,Easy,6.3,Mile,0:52:31
2011-08-02,,Run,Easy,9.6,Mile,1:14:32
2011-08-03,,Run,Easy,5.6,Mile,0:46:54
2011-08-04,,Run,Easy,7.2,Mile,1:01:00
2011-08-05,,Run,Easy,5.4,Mile,0:43:21
2011-08-06,,Run,Easy,8.5,Mile,1:08:31
2011-08-07,,Run,Easy,7.2,Mile,0:59:32
2011-08-08,,Run,Easy,8.6,Mile,0:00:00
2011-08-09,,Run,Trails,11.4,Mile,0:00:00
2011-08-10,,Run,Easy,7,Mile,0:54:32
2011-08-11,,Run,Easy,5.6,Mile,0:45:00
2011-08-12,,Run,Easy,7.6,Mile,1:00:01
2011-08-13,,Run,Easy,5.4,Mile,0:43:00
2011-08-14,,Run,Easy,6.1,Mile,0:53:00
2011-08-15,17:19:00,Run,Easy,7.7,Mile,00:36.2
2011-08-16,17:37:00,Run,Easy,5.79,Mile,46:08.5
2011-08-17,,Run,Easy,5.8,Mile,0:46:00
2011-08-22,,Run,Easy,5.6,Mile,0:00:00
2011-08-23,17:40:00,Run,Easy,6.76,Mile,49:51.7
2011-08-24,17:11:00,Run,Easy,5,Mile,40:28.3
2011-08-25,17:23:00,Run,Easy,6.45,Mile,50:10.4
2011-08-26,17:26:00,Run,Easy,6.02,Mile,47:21.6
2011-08-27,10:26:00,Run,Easy,8.1,Mile,1:06:00
2011-08-28,,Run,Easy,6.65,Mile,0:49:00
2011-08-29,17:22:00,Run,Intervals,9.42,Mile,11:08.3
2011-08-30,17:24:00,Run,Easy,7.08,Mile,56:39.2
2011-08-31,17:20:00,Run,Tempo,7.21,Mile,50:59.4
2011-09-01,,Run,Easy,9.2,Mile,1:10:45
2011-09-04,7:44:00,Run,Easy,7.3,Mile,59:27.2
2011-09-06,18:00:00,Run,Easy,6.31,Mile,50:52.8
2011-09-07,17:24:00,Run,Tempo,9.29,Mile,04:55.7
2011-09-08,17:20:00,Run,Easy,7.06,Mile,54:44.7
2011-09-09,17:34:00,Run,Easy,5.03,Mile,36:51.1
2011-09-10,16:08:00,Run,Easy,3.13,Mile,23:19.3
2011-09-10,20:25:00,Run,Easy,4.05,Mile,32:45.6
2011-09-12,17:37:00,Run,Easy,10.5,Mile,22:12.1
2011-09-13,17:29:00,Run,Easy,10.02,Mile,19:16.6
2011-09-14,17:22:00,Run,Easy,6.58,Mile,51:27.9
2011-09-15,17:12:00,Run,Easy,9.02,Mile,11:41.3
2011-09-16,17:22:00,Run,Easy,9.07,Mile,08:48.9
2011-09-17,12:03:00,Run,Easy,5.14,Mile,40:15.5
2011-09-18,17:19:00,Run,Intervals,10.13,Mile,13:52.1
2011-09-19,17:22:00,Run,Easy,6.52,Mile,52:09.3
2011-09-20,18:08:00,Run,Easy,7.03,Mile,0:56:01
2011-09-21,,Run,Easy,10.12,Mile,1:14:15
2011-09-22,17:37:00,Run,Easy,7.14,Mile,59:06.4
2011-09-23,17:18:00,Run,Easy,7.16,Mile,57:27.2
2011-09-24,13:15:00,Run,Easy,7.38,Mile,58:01.1
2011-09-25,11:54:00,Run,Easy,8.19,Mile,03:51.8
2011-09-26,17:03:00,Run,Easy,10,Mile,19:07.8
2011-09-27,17:47:00,Run,Tempo,7.37,Mile,51:53.4
2011-09-28,18:08:00,Run,Easy,5.11,Mile,42:12.1
2011-09-29,17:03:00,Run,Easy,11.1,Mile,24:06.3
2011-09-30,17:19:00,Run,Easy,4.14,Mile,33:26.8
2011-10-01,8:12:00,Run,Easy,2.03,Mile,15:38.1
2011-10-01,8:32:00,Run,Race,5,Kilometer,17:58.0
2011-10-01,8:52:00,Run,Recovery,1.1,Mile,07:45.5
2011-10-02,11:59:00,Run,Bomb,12.37,Mile,30:39.4
2011-10-03,18:47:00,Run,Easy,5.01,Mile,41:27.6
2011-10-04,17:56:00,Run,Easy,5.02,Mile,40:46.0
2011-10-05,18:02:00,Run,Easy,9.31,Mile,23:02.8
2011-10-06,18:45:00,Run,Easy,5.01,Mile,38:23.7
2011-10-07,19:29:00,Run,Easy,7,Mile,56:15.1
2011-10-09,12:00:00,Run,Easy,10.17,Mile,17:43.8
2011-10-10,17:47:00,Run,Easy,6.32,Mile,53:37.7
2011-10-11,,Run,Tempo,11.21,Mile,1:17:45
2011-10-12,,Run,Easy,3.5,Mile,0:00:00
2011-10-12,19:05:00,Run,Easy,4.03,Mile,25:29.9
2011-10-13,13:27:00,Run,Easy,8.13,Mile,04:55.1
2011-10-15,7:37:00,Run,Easy,2.33,Mile,0:18:20
2011-10-16,,Run,Race,12,Kilometer,0:44:49
2011-10-17,17:16:00,Run,Recovery,6.22,Mile,52:05.5
2011-10-18,17:44:00,Run,Easy,5.34,Mile,40:59.1
2011-10-19,17:21:00,Run,Easy,9.3,Mile,10:26.6
2011-10-20,,Run,Easy,10.1,Mile,1:14:50
2011-10-21,,Run,Easy,9.12,Mile,1:07:40
2011-10-22,11:02:00,Run,Easy,8.08,Mile,02:18.0
2011-10-23,10:28:00,Run,Easy,11.32,Mile,28:16.3
2011-10-24,17:11:00,Run,Easy,10.12,Mile,18:17.4
2011-10-25,17:19:00,Run,Easy,8.46,Mile,05:50.6
2011-10-26,17:00:00,Run,Easy,7.26,Mile,56:24.3
2011-10-27,17:13:00,Run,Intervals,8.65,Mile,01:44.7
2011-10-28,17:41:00,Run,Easy,7.58,Mile,20:50.7
2011-10-29,7:31:00,Run,Easy,5.29,Mile,44:37.3
2011-10-30,11:49:00,Run,Easy,12.01,Mile,30:29.6
2011-10-31,17:13:00,Run,Easy,7.44,Mile,01:28.2
2011-11-01,16:58:00,Run,Easy,6.75,Mile,48:49.6
2011-11-01,17:55:00,Run,Easy,3.63,Mile,44:23.6
2011-11-02,16:56:00,Run,Easy,6.76,Mile,51:12.0
2011-11-03,17:10:00,Run,Easy,8.55,Mile,01:40.5
2011-11-04,,Run,Easy,5.2,Mile,0:38:15
2011-11-05,7:45:00,Run,Easy,0.85,Mile,0:06:40
2011-11-05,8:00:00,Run,Race,13.1,Mile,21:33.3
2011-11-06,10:19:00,Run,Easy,7.03,Mile,57:40.2
2011-11-07,17:16:00,Run,Easy,9.04,Mile,05:57.7
2011-11-08,16:44:00,Run,Easy,11.05,Mile,26:39.2
2011-11-09,11:20:00,Run,Easy,5.07,Mile,38:13.5
2011-11-10,6:10:00,Run,Easy,5.33,Mile,45:32.8
2011-11-10,17:37:00,Run,Easy,5.19,Mile,41:13.2